<?xml version="1.0" encoding="utf-8"?>
<!-- Generator: Adobe Illustrator 16.0.0, SVG Export Plug-In . SVG Version: 6.00 Build 0)  -->
<!DOCTYPE svg PUBLIC "-//W3C//DTD SVG 1.1//EN" "http://www.w3.org/Graphics/SVG/1.1/DTD/svg11.dtd">
<svg version="1.1" id="Capa_1" xmlns="http://www.w3.org/2000/svg" xmlns:xlink="http://www.w3.org/1999/xlink" x="0px" y="0px"
	 width="100%" height="100%" viewBox="0 0 129.122 34.464" enable-background="new 0 0 129.122 34.464"
	 xml:space="preserve">
<g>
	<path fill="#B2B2B2" d="M111.838,28.25h2.658c0.422,0,0.635,0.211,0.635,0.633v2.066c0,0.422-0.213,0.633-0.635,0.633h-10.041
		c-0.422,0-0.634-0.211-0.634-0.633v-2.066c0-0.422,0.212-0.633,0.634-0.633h2.657V14.156h-2.278c-0.422,0-0.633-0.211-0.633-0.633
		V11.33c0-0.423,0.211-0.633,0.633-0.633h6.371c0.422,0,0.633,0.21,0.633,0.633V28.25z M106.732,6.941
		c-0.534-0.563-0.8-1.281-0.8-2.152s0.273-1.597,0.822-2.173c0.549-0.576,1.279-0.866,2.192-0.866c0.915,0,1.646,0.29,2.194,0.866
		c0.55,0.576,0.822,1.302,0.822,2.173s-0.281,1.59-0.842,2.152c-0.565,0.563-1.305,0.844-2.217,0.844
		C107.991,7.785,107.268,7.504,106.732,6.941z"/>
	<path fill="#B2B2B2" d="M122.54,14.156v10.632c0,1.324,0.168,2.279,0.508,2.869c0.336,0.592,0.97,0.887,1.896,0.887
		c0.931,0,1.829-0.196,2.701-0.59c0.308-0.113,0.534,0,0.676,0.336l0.759,1.942c0.028,0.083,0.043,0.204,0.043,0.356
		c0,0.154-0.141,0.318-0.424,0.484c-1.349,0.678-2.951,1.014-4.809,1.014c-2.506,0-4.148-0.646-4.938-1.939
		c-0.562-0.844-0.887-1.66-0.97-2.447c-0.114-1.068-0.171-2.195-0.171-3.375V14.156h-2.404c-0.422,0-0.634-0.211-0.634-0.633V11.33
		c0-0.423,0.212-0.633,0.634-0.633h2.404V5c0-0.422,0.212-0.633,0.634-0.633h3.459c0.423,0,0.636,0.211,0.636,0.633v5.697h4.26
		c0.424,0,0.634,0.21,0.634,0.633v2.193c0,0.422-0.21,0.633-0.634,0.633H122.54z"/>
	<g>
		<g>
			<path id="SVGID_1_" fill="#00A295" d="M7.685,0.638v16.94h2.166l6.58-6.452c0.312-0.312,0.68-0.469,1.104-0.469h3.313
				c0.424,0,0.636,0.213,0.636,0.637v2.208c0,0.425-0.212,0.637-0.636,0.637h-2.591l-4.671,4.543l5.816,9.639h1.763
				c0.424,0,0.637,0.212,0.637,0.636v2.08c0,0.426-0.213,0.639-0.637,0.639h-4.734c-0.396,0-0.721-0.184-0.976-0.553l-6.37-10.274
				h-1.4v7.474h2.251c0.423,0,0.636,0.213,0.636,0.637v2.08c0,0.426-0.213,0.639-0.636,0.639H0.68c-0.425,0-0.638-0.213-0.638-0.639
				v-2.08c0-0.424,0.213-0.637,0.638-0.637h2.25V3.439H0.637C0.212,3.439,0,3.227,0,2.803V0.638C0,0.213,0.212,0,0.637,0h6.411
				C7.473,0,7.685,0.213,7.685,0.638z"/>
		</g>
	</g>
	<g>
		<g>
			<path id="SVGID_3_" fill="#00A295" d="M23.688,13.545v-2.251c0-0.424,0.213-0.637,0.637-0.637h5.774
				c0.367,0,0.595,0.213,0.68,0.637l0.382,2.464c1.585-2.379,3.849-3.568,6.793-3.568c4.387,0,6.581,2.406,6.581,7.219V28.32h2.463
				c0.424,0,0.637,0.213,0.637,0.637v2.08c0,0.426-0.213,0.639-0.637,0.639h-9.256c-0.424,0-0.637-0.213-0.637-0.639v-2.08
				c0-0.424,0.213-0.637,0.637-0.637h2.038v-8.789c0-1.781-0.228-3.085-0.679-3.907c-0.454-0.82-1.388-1.23-2.803-1.23
				c-1.416,0-2.591,0.425-3.524,1.274s-1.401,1.812-1.401,2.886v9.767h2.633c0.424,0,0.637,0.212,0.637,0.636v2.08
				c0,0.426-0.213,0.639-0.637,0.639h-9.639c-0.423,0-0.637-0.213-0.637-0.639v-2.08c0-0.424,0.214-0.636,0.637-0.636h2.251V14.139
				h-2.293C23.9,14.139,23.688,13.941,23.688,13.545z"/>
		</g>
	</g>
	<g>
		<g>
			<path id="SVGID_5_" fill="#00A295" d="M76.538,11.294l3.864,15.157l4.203-15.199c0.112-0.396,0.381-0.595,0.806-0.595h3.396
				c0.427,0,0.694,0.198,0.808,0.595l4.332,15.285l3.779-12.397h-2.039c-0.425,0-0.639-0.212-0.639-0.637v-2.208
				c0-0.424,0.214-0.637,0.639-0.637h5.436c0.34,0,0.573,0.094,0.7,0.277c0.126,0.184,0.19,0.347,0.19,0.487
				c0,0.14-0.016,0.27-0.042,0.383l-5.858,19.273c-0.113,0.397-0.384,0.596-0.808,0.596h-3.821c-0.425,0-0.693-0.213-0.807-0.639
				L86.643,16.05L82.44,31.08c-0.113,0.396-0.383,0.596-0.809,0.596h-3.819c-0.424,0-0.694-0.198-0.808-0.596l-4.627-16.94H70.17
				c-0.426,0-0.639-0.212-0.639-0.637v-2.208c0-0.424,0.213-0.637,0.639-0.637h5.561C76.156,10.657,76.424,10.87,76.538,11.294z"/>
		</g>
	</g>
	<g>
		<g>
			<path id="SVGID_7_" fill="#00A295" d="M58.804,9.682c-6.321,0-11.444,5.123-11.444,11.442c0,4.521,2.619,8.426,6.423,10.285
				c-0.425,0.885-0.993,1.692-1.754,2.213c-2.534,1.734,10.69,1.131,15.517-5.113c1.685-1.992,2.703-4.568,2.703-7.385
				C70.249,14.805,65.124,9.682,58.804,9.682z M60.613,17.5c0.322-0.339,0.75-0.508,1.286-0.508c0.534,0,0.962,0.169,1.283,0.508
				c0.322,0.337,0.481,0.761,0.481,1.271c0,0.512-0.164,0.932-0.493,1.262c-0.33,0.329-0.762,0.493-1.297,0.493
				c-0.536,0-0.96-0.164-1.273-0.493c-0.313-0.33-0.468-0.75-0.468-1.262C60.133,18.261,60.293,17.837,60.613,17.5z M54.423,17.5
				c0.322-0.339,0.75-0.508,1.285-0.508s0.964,0.169,1.285,0.508c0.321,0.337,0.481,0.761,0.481,1.271
				c0,0.512-0.165,0.932-0.495,1.262c-0.329,0.329-0.762,0.493-1.296,0.493c-0.535,0-0.96-0.164-1.273-0.493
				c-0.313-0.33-0.469-0.75-0.469-1.262C53.941,18.261,54.102,17.837,54.423,17.5z M65.624,22.49
				c-0.017,0.043-1.646,5.715-6.986,5.715h-0.006c-5.022-0.172-6.632-5.416-6.646-5.457l-0.017-0.043l0.184-0.933l0.231,0.521
				c0.018,0.039,1.816,3.945,6.254,3.945c4.927,0,6.469-4.043,6.48-4.085l0.108-0.353l0.424,0.609L65.624,22.49z"/>
		</g>
	</g>
	<path opacity="0.1" fill="#FFFFFF" enable-background="new    " d="M13.586,18.682l4.671-4.543h2.591
		c0.424,0,0.636-0.212,0.636-0.637v-2.208c0-0.424-0.212-0.637-0.636-0.637h-3.313c-0.424,0-0.792,0.157-1.104,0.469l-6.58,6.452
		H7.685V0.638C7.685,0.213,7.473,0,7.048,0H0.637C0.212,0,0,0.213,0,0.638v2.165C0,3.227,0.212,3.44,0.637,3.44H2.93v15.319h10.703
		L13.586,18.682z"/>
	<path opacity="0.1" fill="#FFFFFF" enable-background="new    " d="M31.372,18.554c0-1.074,0.468-2.036,1.401-2.886
		s2.108-1.274,3.524-1.274c1.415,0,2.349,0.41,2.803,1.23c0.384,0.698,0.604,1.745,0.662,3.135h4.771v-1.351
		c0-4.813-2.194-7.219-6.581-7.219c-2.944,0-5.208,1.189-6.793,3.568l-0.382-2.464c-0.085-0.424-0.313-0.637-0.68-0.637h-5.774
		c-0.424,0-0.637,0.213-0.637,0.637v2.251c0,0.396,0.213,0.594,0.637,0.594h2.293v4.619h4.755L31.372,18.554L31.372,18.554z"/>
	<path opacity="0.1" fill="#FFFFFF" enable-background="new    " d="M86.663,16.05l0.729,2.709h4.37l-2.127-7.507
		c-0.114-0.396-0.383-0.595-0.809-0.595H85.43c-0.426,0-0.693,0.198-0.807,0.595l-2.074,7.507h3.354L86.663,16.05z"/>
	<path opacity="0.1" fill="#FFFFFF" enable-background="new    " d="M76.56,11.294c-0.114-0.424-0.382-0.637-0.808-0.637h-5.561
		c-0.426,0-0.639,0.213-0.639,0.637v2.208c0,0.425,0.213,0.637,0.639,0.637h2.206l1.263,4.62h4.803L76.56,11.294z"/>
	<path opacity="0.1" fill="#FFFFFF" enable-background="new    " d="M101.991,11.805c0.027-0.113,0.043-0.242,0.043-0.383
		c0-0.141-0.063-0.304-0.191-0.487c-0.129-0.183-0.36-0.277-0.7-0.277h-5.435c-0.426,0-0.638,0.213-0.638,0.637v2.208
		c0,0.425,0.212,0.637,0.638,0.637h2.039l-1.408,4.619h3.537L101.991,11.805z"/>
	<path opacity="0.1" fill="#FFFFFF" enable-background="new    " d="M108.907,7.785c0.912,0,1.65-0.281,2.217-0.844
		c0.561-0.563,0.842-1.281,0.842-2.152s-0.272-1.597-0.822-2.173c-0.549-0.576-1.279-0.866-2.193-0.866s-1.646,0.29-2.193,0.866
		c-0.549,0.576-0.822,1.302-0.822,2.173s0.266,1.59,0.8,2.152C107.268,7.504,107.991,7.785,108.907,7.785z"/>
	<path opacity="0.1" fill="#FFFFFF" enable-background="new    " d="M111.838,11.33c0-0.423-0.211-0.633-0.633-0.633h-6.371
		c-0.422,0-0.633,0.21-0.633,0.633v2.193c0,0.422,0.211,0.633,0.633,0.633h2.278v4.603h4.726V11.33z"/>
	<path opacity="0.1" fill="#FFFFFF" enable-background="new    " d="M122.54,14.156h4.262c0.423,0,0.633-0.211,0.633-0.633V11.33
		c0-0.423-0.21-0.633-0.633-0.633h-4.262V5c0-0.422-0.211-0.633-0.635-0.633h-3.459c-0.422,0-0.634,0.211-0.634,0.633v5.697h-2.403
		c-0.423,0-0.635,0.21-0.635,0.633v2.193c0,0.422,0.212,0.633,0.635,0.633h2.403v4.603h4.728V14.156z"/>
	<path opacity="0.1" fill="#FFFFFF" enable-background="new    " d="M54.423,17.5c0.322-0.339,0.75-0.508,1.285-0.508
		s0.964,0.169,1.285,0.508c0.318,0.333,0.478,0.753,0.48,1.259h2.66c0.002-0.506,0.162-0.926,0.479-1.259
		c0.322-0.339,0.75-0.508,1.286-0.508c0.534,0,0.962,0.169,1.283,0.508c0.32,0.333,0.478,0.753,0.481,1.259h6.336
		c-1.09-5.185-5.688-9.077-11.197-9.077c-5.509,0-10.108,3.893-11.198,9.077h6.338C53.945,18.253,54.104,17.833,54.423,17.5z"/>
</g>
</svg>